{
    "1": {
        "cost_price": "0.85",
        "international": false,
        "max_weight": "20",
        "name": "Standardbrief"
    },
    "10001": {
        "cost_price": "1.1",
        "international": true,
        "max_weight": "20",
        "name": "Standardbrief Intern. GK"
    },
    "10011": {
        "cost_price": "1.7",
        "international": true,
        "max_weight": "50",
        "name": "Kompaktbrief Intern. GK"
    },
    "1002": {
        "cost_price": "3.20",
        "international": false,
        "max_weight": "20",
        "name": "Standardbrief Integral + EINSCHREIBEN EINWURF"
    },
    "10051": {
        "cost_price": "3.7",
        "international": true,
        "max_weight": "500",
        "name": "Großbrief Intern. GK"
    },
    "1007": {
        "cost_price": "3.50",
        "international": false,
        "max_weight": "20",
        "name": "Standardbrief Integral + EINSCHREIBEN"
    },
    "10071": {
        "cost_price": "7",
        "international": true,
        "max_weight": "1000",
        "name": "Maxibrief Intern. bis 1.000g GK"
    },
    "1009": {
        "cost_price": "5.70",
        "international": false,
        "max_weight": "20",
        "name": "Standardbrief Integral + EINSCHREIBEN + EIGENHÄNDIG"
    },
    "10091": {
        "cost_price": "17",
        "international": true,
        "max_weight": "2000",
        "name": "Maxibrief Intern. bis 2.000g GK"
    },
    "1012": {
        "cost_price": "3.35",
        "international": false,
        "max_weight": "50",
        "name": "Kompaktbrief Integral + EINSCHREIBEN EINWURF"
    },
    "10162": {
        "cost_price": "4.30",
        "international": true,
        "max_weight": "2000",
        "name": "Brief Kilotarif international ohne USt + EINSCHREIBEN"
    },
    "10166": {
        "cost_price": "0.80",
        "international": true,
        "max_weight": "2000",
        "name": "Brief Kilotarif international ohne USt."
    },
    "1017": {
        "cost_price": "3.65",
        "international": false,
        "max_weight": "50",
        "name": "Kompaktbrief Integral + EINSCHREIBEN"
    },
    "1019": {
        "cost_price": "5.85",
        "international": false,
        "max_weight": "50",
        "name": "Kompaktbrief Integral + EINSCHREIBEN + EIGENHÄNDIG"
    },
    "10201": {
        "cost_price": "0.95",
        "international": true,
        "max_weight": "15",
        "name": "Postkarte Intern. GK"
    },
    "1022": {
        "cost_price": "3.95",
        "international": false,
        "max_weight": "500",
        "name": "Großbrief Integral + EINSCHREIBEN EINWURF"
    },
    "1027": {
        "cost_price": "4.25",
        "international": false,
        "max_weight": "500",
        "name": "Großbrief Integral + EINSCHREIBEN"
    },
    "1029": {
        "cost_price": "6.45",
        "international": false,
        "max_weight": "500",
        "name": "Großbrief Integral + EINSCHREIBEN + EIGENHÄNDIG"
    },
    "1032": {
        "cost_price": "5.10",
        "international": false,
        "max_weight": "1000",
        "name": "Maxibrief Integral + EINSCHREIBEN EINWURF"
    },
    "1037": {
        "cost_price": "5.40",
        "international": false,
        "max_weight": "1000",
        "name": "Maxibrief Integral + EINSCHREIBEN"
    },
    "1039": {
        "cost_price": "7.60",
        "international": false,
        "max_weight": "1000",
        "name": "Maxibrief Integral + EINSCHREIBEN + EIGENHÄNDIG"
    },
    "1042": {
        "cost_price": "7.30",
        "international": false,
        "max_weight": "2000",
        "name": "Maxibrief Integral + Zusatzentgelt MBf + EINSCHREIBEN EINWURF"
    },
    "1047": {
        "cost_price": "7.60",
        "international": false,
        "max_weight": "2000",
        "name": "Maxibrief Integral + Zusatzentgelt MBf + EINSCHREIBEN"
    },
    "1049": {
        "cost_price": "9.80",
        "international": false,
        "max_weight": "2000",
        "name": "Maxibrief Integral + Zusatzentgelt MBf + EINSCHREIBEN + EIGENHÄNDIG"
    },
    "1052": {
        "cost_price": "3.05",
        "international": false,
        "max_weight": "15",
        "name": "Postkarte Integral + EINSCHREIBEN EINWURF"
    },
    "1057": {
        "cost_price": "3.35",
        "international": false,
        "max_weight": "15",
        "name": "Postkarte Integral + EINSCHREIBEN"
    },
    "1059": {
        "cost_price": "5.55",
        "international": false,
        "max_weight": "15",
        "name": "Postkarte Integral + EINSCHREIBEN + EIGENHÄNDIG"
    },
    "11": {
        "cost_price": "1.00",
        "international": false,
        "max_weight": "50",
        "name": "Kompaktbrief"
    },
    "11006": {
        "cost_price": "4.6",
        "international": true,
        "max_weight": "20",
        "name": "Standardbrief Intern. GK Integral + EINSCHREIBEN"
    },
    "11016": {
        "cost_price": "5.2",
        "international": true,
        "max_weight": "50",
        "name": "Kompaktbrief Intern. GK Integral + EINSCHREIBEN"
    },
    "11056": {
        "cost_price": "7.2",
        "international": true,
        "max_weight": "500",
        "name": "Großbrief Intern. GK Integral + EINSCHREIBEN"
    },
    "11076": {
        "cost_price": "10.5",
        "international": true,
        "max_weight": "1000",
        "name": "Maxibrief Intern. bis 1.000g GK Integral + EINSCHREIBEN"
    },
    "11096": {
        "cost_price": "20.5",
        "international": true,
        "max_weight": "2000",
        "name": "Maxibrief Intern. bis 2.000g GK Integral + EINSCHREIBEN"
    },
    "11202": {
        "cost_price": "4.45",
        "international": true,
        "max_weight": "15",
        "name": "Postkarte Intern. GK Integral + EINSCHREIBEN"
    },
    "195": {
        "cost_price": "1.95",
        "international": false,
        "max_weight": "20",
        "name": "Standardbrief + Prio"
    },
    "196": {
        "cost_price": "2.10",
        "international": false,
        "max_weight": "50",
        "name": "Kompaktbrief + Prio"
    },
    "197": {
        "cost_price": "2.70",
        "international": false,
        "max_weight": "500",
        "name": "Großbrief + Prio"
    },
    "198": {
        "cost_price": "3.85",
        "international": false,
        "max_weight": "1000",
        "name": "Maxibrief + Prio"
    },
    "199": {
        "cost_price": "6.05",
        "international": false,
        "max_weight": "2000",
        "name": "Maxibrief bis 2000 g + Zusatzentgelt MBf + Prio"
    },
    "200": {
        "cost_price": "1.80",
        "international": false,
        "max_weight": "15",
        "name": "Postkarte + Prio"
    },
    "21": {
        "cost_price": "1.60",
        "international": false,
        "max_weight": "500",
        "name": "Großbrief"
    },
    "282": {
        "cost_price": "1.95",
        "international": false,
        "max_weight": "500",
        "name": "Bücher- und Warensendung 500"
    },
    "290": {
        "cost_price": "2.25",
        "international": false,
        "max_weight": "1000",
        "name": "Bücher- und Warensendung 1000"
    },
    "31": {
        "cost_price": "2.75",
        "international": false,
        "max_weight": "1000",
        "name": "Maxibrief"
    },
    "401": {
        "cost_price": "0.89",
        "international": false,
        "max_weight": "50",
        "name": "Streifbandzeitung bis 50 g"
    },
    "402": {
        "cost_price": "1.19",
        "international": false,
        "max_weight": "100",
        "name": "Streifbandzeitung bis 100 g"
    },
    "403": {
        "cost_price": "1.37",
        "international": false,
        "max_weight": "250",
        "name": "Streifbandzeitung bis 250 g"
    },
    "404": {
        "cost_price": "1.67",
        "international": false,
        "max_weight": "500",
        "name": "Streifbandzeitung bis 500 g"
    },
    "405": {
        "cost_price": "2.50",
        "international": false,
        "max_weight": "1000",
        "name": "Streifbandzeitung bis 1000 g"
    },
    "41": {
        "cost_price": "4.95",
        "international": false,
        "max_weight": "2000",
        "name": "Maxibrief bis 2000 g + Zusatzentgelt MBf"
    },
    "51": {
        "cost_price": "0.70",
        "international": false,
        "max_weight": "15",
        "name": "Postkarte"
    }
}